matieres-1A/informatique-1A/inf107/td-logisim/edge/vcd/edgedetect.vcd
$date today $end
$timescale 1 ns $end
$scope module circ $end
$var integer 1 ! clk $end
$var integer 1 # D $end
$var integer 1 % TOP $end
$upscope $end
$scope module spec $end
$var integer 1 " clk $end
$var integer 1 $ D $end
$var integer 1 & TOP $end
$upscope $end
$enddefinitions $end
#0
$dumpvars
0!
0"
0#
0$
0%
0&
$end
#1
1!
1"
#2
0!
0"
#3
1!
1"
#4
0!
0"
#5
1!
1"
#6
0!
0"
#7
1!
1"
#8
0!
1#
0"
1$
#9
1!
1%
1"
1&
#10
0!
0"
#11
1!
0%
1"
0&
#12
0!
0"
#13
1!
1"
#14
0!
0"
#15
1!
1"
#16
0!
0#
0"
0$
#17
1!
1%
1"
#18
0!
0"
#19
1!
0%
1"
#20
0!
0"
#21
1!
1"
#22
0!
0"
#23
1!
1"
#24
0!
1#
0"
1$
#25
1!
1%
1"
1&
#26
0!
0"
#27
1!
0%
1"
0&
#28
0!
0"
#29
1!
1"
#30
0!
0"
#31
1!
1"
#32
0!
0"
#33
1!
1"
#34
0!
0"
#35
1!
1"
#36
0!
0"
#37
1!
1"
#38
0!
0#
0"
0$
#39
1!
1%
1"
#40
0!
0"
#41
1!
0%
1"
#42
0!
0"
#43
1!
1"
#44
0!
1#
0"
1$
#45
1!
1%
1"
1&
#46
0!
0#
0"
0$
#47
1!
1"
0&
#48
0!
0"
#49
1!
0%
1"
#50
0!
1#
0"
1$
#51
1!
1%
1"
1&
#52
0!
0"
#53
1!
0%
1"
0&
#54
0!
0#
0"
0$
#55
1!
1%
1"
#56
0!
0"
#57
1!
0%
1"
#58
0!
1#
0"
1$
#59
1!
1%
1"
1&
#60
0!
0#
0"
0$
#61
1!
1"
0&
#62
0!
0"
#63
1!
0%
1"
