matieres-1A/informatique-1A/inf107/tp-riscv/riscv/vcd/test-load.vcd
$date today $end
$timescale 1 ns $end
$scope module circ $end
$var integer 1 ! clk $end
$var integer 1 # reset $end
$var integer 32 % pc $end
$var integer 32 ' I $end
$var integer 4 ) rd $end
$var integer 4 + rs1 $end
$var integer 4 - rs2 $end
$var integer 1 / write $end
$var integer 1 1 ALUsrc $end
$var integer 1 3 load $end
$var integer 32 5 Op1 $end
$var integer 32 7 Op2 $end
$var string 4 9 op $end
$var integer 32 ; Res $end
$upscope $end
$scope module spec $end
$var integer 1 " clk $end
$var integer 1 $ reset $end
$var integer 32 & pc $end
$var integer 32 ( I $end
$var integer 4 * rd $end
$var integer 4 , rs1 $end
$var integer 4 . rs2 $end
$var integer 1 0 write $end
$var integer 1 2 ALUsrc $end
$var integer 1 4 load $end
$var integer 32 6 Op1 $end
$var integer 32 8 Op2 $end
$var string 4 : op $end
$var integer 32 < Res $end
$upscope $end
$enddefinitions $end
#0
$dumpvars
0!
0"
1#
1$
b0 %
b0 &
b0 '
b0 (
b0 )
b0 *
b0 +
b0 ,
b0 -
b0 .
1/
10
01
02
03
04
b0 5
b0 6
b0 7
b0 8
sADD 9
sADD :
b0 ;
b0 <
$end
#1
1!
0#
b10000000000000010000010011 '
b1000 )
b100000 7
b100000 ;
1"
0$
b10000000000000010000010011 (
b1000 *
b100000 8
b100000 <
#2
0!
0"
#3
1!
b100 %
b1000010010100000011 '
b1010 )
b1000 +
b100000 5
b0 7
sSLT 9
b0 ;
1"
b100 &
b1000010010100000011 (
b1010 *
b1000 ,
14
b100000 6
b0 8
b11001010111111100000000100100011 <
#4
0!
0"
#5
1!
b1000 %
b10001000010010110000011 '
b1011 )
b100 -
b100 7
1"
b1000 &
b10001000010010110000011 (
b1011 *
b100 .
b100 8
b1011010010110100101101001011010 <
#6
0!
0"
#7
1!
b1100 %
b101101010000011000110011 '
b1100 )
b1010 +
b1011 -
11
b0 5
b0 7
sADD 9
1"
b1100 &
b101101010000011000110011 (
b1100 *
b1010 ,
b1011 .
12
04
b11001010111111100000000100100011 6
b1011010010110100101101001011010 8
b100101010110000101101101111101 <
#8
0!
0"
#9
1!
b10000 %
b10011 '
b0 )
b0 +
b0 -
01
1"
b10000 &
b10011 (
b0 *
b0 ,
b0 .
02
b0 6
b0 8
b0 <
#10
0!
0"
#11
1!
b10100 %
1"
b10100 &
#12
0!
0"
#13
1!
b11000 %
1"
b11000 &
#14
0!
0"
#15
1!
b11100 %
1"
b11100 &
#16
0!
0"
#17
1!
b100000 %
b11001010111111100000000100100011 '
b10 )
b1100 +
b1111 -
11
sSUB 9
1"
b100000 &
b11001010111111100000000100100011 (
b10 *
b1100 ,
b1111 .
12
b100101010110000101101101111101 6
sSUB :
b100101010110000101101101111101 <
#18
0!
0"
#19
1!
b100100 %
b1011010010110100101101001011010 '
b100 )
b100 +
b101 -
01
b10110100101 7
sSRL 9
1"
b100100 &
b1011010010110100101101001011010 (
b100 *
b100 ,
b101 .
02
b0 6
b10110100101 8
sSRA :
b0 <
#20
0!
0"
#21
1!
b101000 %
b0 '
b0 )
b0 +
b0 -
b0 7
sADD 9
1"
b101000 &
b0 (
b0 *
b0 ,
b0 .
b0 8
sADD :
#22
0!
0"
#23
1!
b101100 %
1"
b101100 &
#24
0!
0"
#25
1!
b110000 %
1"
b110000 &
#26
0!
0"
#27
1!
b110100 %
1"
b110100 &
#28
0!
0"
#29
1!
b111000 %
1"
b111000 &
#30
0!
0"
#31
1!
b111100 %
1"
b111100 &
#32
0!
0"
#33
1!
b1000000 %
1"
b1000000 &
#34
0!
0"
#35
1!
b1000100 %
1"
b1000100 &
#36
0!
0"
#37
1!
b1001000 %
1"
b1001000 &
#38
0!
0"
#39
1!
b1001100 %
1"
b1001100 &
#40
0!
0"
#41
1!
b1010000 %
1"
b1010000 &
#42
0!
0"
#43
1!
b1010100 %
1"
b1010100 &
#44
0!
0"
#45
1!
b1011000 %
1"
b1011000 &
#46
0!
0"
#47
1!
b1011100 %
1"
b1011100 &
#48
0!
0"
#49
1!
b1100000 %
1"
b1100000 &
#50
0!
0"
#51
1!
b1100100 %
1"
b1100100 &
#52
0!
0"
#53
1!
b1101000 %
1"
b1101000 &
#54
0!
0"
#55
1!
b1101100 %
1"
b1101100 &
#56
0!
0"
#57
1!
b1110000 %
1"
b1110000 &
#58
0!
0"
#59
1!
b1110100 %
1"
b1110100 &
#60
0!
0"
#61
1!
b1111000 %
1"
b1111000 &
#62
0!
0"
#63
1!
b1111100 %
1"
b1111100 &
#64
0!
0"
#65
1!
b10000000 %
1"
b10000000 &
#66
0!
0"
#67
1!
b10000100 %
1"
b10000100 &
#68
0!
0"
#69
1!
b10001000 %
1"
b10001000 &
#70
0!
0"
#71
1!
b10001100 %
1"
b10001100 &
#72
0!
0"
#73
1!
b10010000 %
1"
b10010000 &
#74
0!
0"
#75
1!
b10010100 %
1"
b10010100 &
#76
0!
0"
#77
1!
b10011000 %
1"
b10011000 &
#78
0!
0"
#79
1!
b10011100 %
1"
b10011100 &
#80
0!
0"
#81
1!
b10100000 %
1"
b10100000 &
#82
0!
0"
#83
1!
b10100100 %
1"
b10100100 &
#84
0!
0"
#85
1!
b10101000 %
1"
b10101000 &
#86
0!
0"
#87
1!
b10101100 %
1"
b10101100 &
#88
0!
0"
#89
1!
b10110000 %
1"
b10110000 &
#90
0!
0"
#91
1!
b10110100 %
1"
b10110100 &
#92
0!
0"
#93
1!
b10111000 %
1"
b10111000 &
#94
0!
0"
#95
1!
b10111100 %
1"
b10111100 &
#96
0!
0"
#97
1!
b11000000 %
1"
b11000000 &
#98
0!
0"
#99
1!
b11000100 %
1"
b11000100 &
#100
0!
0"
#101
1!
b11001000 %
1"
b11001000 &
#102
0!
0"
#103
1!
b11001100 %
1"
b11001100 &
#104
0!
0"
#105
1!
b11010000 %
1"
b11010000 &
#106
0!
0"
#107
1!
b11010100 %
1"
b11010100 &
#108
0!
0"
#109
1!
b11011000 %
1"
b11011000 &
#110
0!
0"
#111
1!
b11011100 %
1"
b11011100 &
#112
0!
0"
#113
1!
b11100000 %
1"
b11100000 &
#114
0!
0"
#115
1!
b11100100 %
1"
b11100100 &
#116
0!
0"
#117
1!
b11101000 %
1"
b11101000 &
#118
0!
0"
#119
1!
b11101100 %
1"
b11101100 &
#120
0!
0"
#121
1!
b11110000 %
1"
b11110000 &
#122
0!
0"
#123
1!
b11110100 %
1"
b11110100 &
#124
0!
0"
#125
1!
b11111000 %
1"
b11111000 &
#126
0!
0"
#127
1!
b11111100 %
1"
b11111100 &
#128
0!
0"
#129
1!
b100000000 %
1"
b100000000 &
#130
0!
0"
#131
1!
b100000100 %
1"
b100000100 &
#132
0!
0"
#133
1!
b100001000 %
1"
b100001000 &
#134
0!
0"
#135
1!
b100001100 %
1"
b100001100 &
#136
0!
0"
#137
1!
b100010000 %
1"
b100010000 &
#138
0!
0"
#139
1!
b100010100 %
1"
b100010100 &
#140
0!
0"
#141
1!
b100011000 %
1"
b100011000 &
#142
0!
0"
#143
1!
b100011100 %
1"
b100011100 &
#144
0!
0"
#145
1!
b100100000 %
1"
b100100000 &
#146
0!
0"
#147
1!
b100100100 %
1"
b100100100 &
#148
0!
0"
#149
1!
b100101000 %
1"
b100101000 &
#150
0!
0"
#151
1!
b100101100 %
1"
b100101100 &
#152
0!
0"
#153
1!
b100110000 %
1"
b100110000 &
#154
0!
0"
#155
1!
b100110100 %
1"
b100110100 &
#156
0!
0"
#157
1!
b100111000 %
1"
b100111000 &
#158
0!
0"
#159
1!
b100111100 %
1"
b100111100 &
#160
0!
0"
#161
1!
b101000000 %
1"
b101000000 &
#162
0!
0"
#163
1!
b101000100 %
1"
b101000100 &
#164
0!
0"
#165
1!
b101001000 %
1"
b101001000 &
#166
0!
0"
#167
1!
b101001100 %
1"
b101001100 &
#168
0!
0"
#169
1!
b101010000 %
1"
b101010000 &
#170
0!
0"
#171
1!
b101010100 %
1"
b101010100 &
#172
0!
0"
#173
1!
b101011000 %
1"
b101011000 &
#174
0!
0"
#175
1!
b101011100 %
1"
b101011100 &
#176
0!
0"
#177
1!
b101100000 %
1"
b101100000 &
#178
0!
0"
#179
1!
b101100100 %
1"
b101100100 &
#180
0!
0"
#181
1!
b101101000 %
1"
b101101000 &
#182
0!
0"
#183
1!
b101101100 %
1"
b101101100 &
#184
0!
0"
#185
1!
b101110000 %
1"
b101110000 &
#186
0!
0"
#187
1!
b101110100 %
1"
b101110100 &
#188
0!
0"
#189
1!
b101111000 %
1"
b101111000 &
#190
0!
0"
#191
1!
b101111100 %
1"
b101111100 &
#192
0!
0"
#193
1!
b110000000 %
1"
b110000000 &
#194
0!
0"
#195
1!
b110000100 %
1"
b110000100 &
#196
0!
0"
#197
1!
b110001000 %
1"
b110001000 &
#198
0!
0"
#199
1!
b110001100 %
1"
b110001100 &
#200
0!
0"
#201
1!
b110010000 %
1"
b110010000 &
#202
0!
0"
#203
1!
b110010100 %
1"
b110010100 &
#204
0!
0"
#205
1!
b110011000 %
1"
b110011000 &
#206
0!
0"
#207
1!
b110011100 %
1"
b110011100 &
#208
0!
0"
#209
1!
b110100000 %
1"
b110100000 &
#210
0!
0"
#211
1!
b110100100 %
1"
b110100100 &
#212
0!
0"
#213
1!
b110101000 %
1"
b110101000 &
#214
0!
0"
#215
1!
b110101100 %
1"
b110101100 &
#216
0!
0"
#217
1!
b110110000 %
1"
b110110000 &
#218
0!
0"
#219
1!
b110110100 %
1"
b110110100 &
#220
0!
0"
#221
1!
b110111000 %
1"
b110111000 &
#222
0!
0"
#223
1!
b110111100 %
1"
b110111100 &
#224
0!
0"
#225
1!
b111000000 %
1"
b111000000 &
#226
0!
0"
#227
1!
b111000100 %
1"
b111000100 &
#228
0!
0"
#229
1!
b111001000 %
1"
b111001000 &
#230
0!
0"
#231
1!
b111001100 %
1"
b111001100 &
#232
0!
0"
#233
1!
b111010000 %
1"
b111010000 &
#234
0!
0"
#235
1!
b111010100 %
1"
b111010100 &
#236
0!
0"
#237
1!
b111011000 %
1"
b111011000 &
#238
0!
0"
#239
1!
b111011100 %
1"
b111011100 &
#240
0!
0"
#241
1!
b111100000 %
1"
b111100000 &
#242
0!
0"
#243
1!
b111100100 %
1"
b111100100 &
#244
0!
0"
#245
1!
b111101000 %
1"
b111101000 &
#246
0!
0"
#247
1!
b111101100 %
1"
b111101100 &
