matieres-1A/informatique-1A/inf107/tp-riscv/riscv/vcd/test-branch.vcd
$date today $end
$timescale 1 ns $end
$scope module circ $end
$var integer 1 ! clk $end
$var integer 1 " reset $end
$var integer 32 # pc $end
$var integer 32 $ I $end
$var integer 4 % rd $end
$var integer 4 & rs1 $end
$var integer 4 ' rs2 $end
$var integer 1 ( write $end
$var integer 1 ) ALUsrc $end
$var integer 1 * load $end
$var integer 1 + store $end
$var integer 1 , branch $end
$var integer 1 - taken $end
$var integer 32 . Op1 $end
$var integer 32 / Op2 $end
$var string 4 0 op $end
$var integer 32 1 Res $end
$upscope $end
$enddefinitions $end
#0
$dumpvars
0!
1"
b0 #
b0 $
b0 %
b0 &
b0 '
1(
0)
0*
0+
0,
0-
b0 .
b0 /
sADD 0
b0 1
$end
#1
1!
0"
b1000000000000000010100010011 $
b1010 %
b10000000 /
b10000000 1
#2
0!
#3
1!
b100 #
b111000000000000010110010011 $
b1011 %
b1110000 /
b1110000 1
#4
0!
#5
1!
b1000 #
b1001011000010110010011 $
b1011 &
b10 '
b1110000 .
b10 /
b1110010 1
#6
0!
#7
1!
b1100 #
b11111110101001011100111011100011 $
b1101 %
b1010 '
0(
1)
1,
1-
b1110010 .
b10000000 /
sSLT 0
b1 1
#8
0!
#9
1!
b1000 #
b1001011000010110010011 $
b1011 %
b10 '
1(
0)
0,
0-
b10 /
sADD 0
b1110100 1
#10
0!
#11
1!
b1100 #
b11111110101001011100111011100011 $
b1101 %
b1010 '
0(
1)
1,
1-
b1110100 .
b10000000 /
sSLT 0
b1 1
#12
0!
#13
1!
b1000 #
b1001011000010110010011 $
b1011 %
b10 '
1(
0)
0,
0-
b10 /
sADD 0
b1110110 1
#14
0!
#15
1!
b1100 #
b11111110101001011100111011100011 $
b1101 %
b1010 '
0(
1)
1,
1-
b1110110 .
b10000000 /
sSLT 0
b1 1
#16
0!
#17
1!
b1000 #
b1001011000010110010011 $
b1011 %
b10 '
1(
0)
0,
0-
b10 /
sADD 0
b1111000 1
#18
0!
#19
1!
b1100 #
b11111110101001011100111011100011 $
b1101 %
b1010 '
0(
1)
1,
1-
b1111000 .
b10000000 /
sSLT 0
b1 1
#20
0!
#21
1!
b1000 #
b1001011000010110010011 $
b1011 %
b10 '
1(
0)
0,
0-
b10 /
sADD 0
b1111010 1
#22
0!
#23
1!
b1100 #
b11111110101001011100111011100011 $
b1101 %
b1010 '
0(
1)
1,
1-
b1111010 .
b10000000 /
sSLT 0
b1 1
#24
0!
#25
1!
b1000 #
b1001011000010110010011 $
b1011 %
b10 '
1(
0)
0,
0-
b10 /
sADD 0
b1111100 1
#26
0!
#27
1!
b1100 #
b11111110101001011100111011100011 $
b1101 %
b1010 '
0(
1)
1,
1-
b1111100 .
b10000000 /
sSLT 0
b1 1
#28
0!
#29
1!
b1000 #
b1001011000010110010011 $
b1011 %
b10 '
1(
0)
0,
0-
b10 /
sADD 0
b1111110 1
#30
0!
#31
1!
b1100 #
b11111110101001011100111011100011 $
b1101 %
b1010 '
0(
1)
1,
1-
b1111110 .
b10000000 /
sSLT 0
b1 1
#32
0!
#33
1!
b1000 #
b1001011000010110010011 $
b1011 %
b10 '
1(
0)
0,
0-
b10 /
sADD 0
b10000000 1
#34
0!
#35
1!
b1100 #
b11111110101001011100111011100011 $
b1101 %
b1010 '
0(
1)
1,
b10000000 .
b10000000 /
sSLT 0
b0 1
#36
0!
#37
1!
b10000 #
b10011 $
b0 %
b0 &
b0 '
1(
0)
0,
b0 .
b0 /
sADD 0
#38
0!
#39
1!
b10100 #
b0 $
#40
0!
#41
1!
b11000 #
#42
0!
#43
1!
b11100 #
#44
0!
#45
1!
b100000 #
#46
0!
#47
1!
b100100 #
#48
0!
#49
1!
b101000 #
#50
0!
#51
1!
b101100 #
#52
0!
#53
1!
b110000 #
#54
0!
#55
1!
b110100 #
#56
0!
#57
1!
b111000 #
#58
0!
#59
1!
b111100 #
#60
0!
#61
1!
b1000000 #
#62
0!
#63
1!
b1000100 #
#64
0!
#65
1!
b1001000 #
#66
0!
#67
1!
b1001100 #
#68
0!
#69
1!
b1010000 #
#70
0!
#71
1!
b1010100 #
#72
0!
#73
1!
b1011000 #
#74
0!
#75
1!
b1011100 #
#76
0!
#77
1!
b1100000 #
#78
0!
#79
1!
b1100100 #
#80
0!
#81
1!
b1101000 #
#82
0!
#83
1!
b1101100 #
#84
0!
#85
1!
b1110000 #
#86
0!
#87
1!
b1110100 #
#88
0!
#89
1!
b1111000 #
#90
0!
#91
1!
b1111100 #
#92
0!
#93
1!
b10000000 #
#94
0!
#95
1!
b10000100 #
#96
0!
#97
1!
b10001000 #
#98
0!
#99
1!
b10001100 #
#100
0!
#101
1!
b10010000 #
#102
0!
#103
1!
b10010100 #
#104
0!
#105
1!
b10011000 #
#106
0!
#107
1!
b10011100 #
#108
0!
#109
1!
b10100000 #
#110
0!
#111
1!
b10100100 #
#112
0!
#113
1!
b10101000 #
#114
0!
#115
1!
b10101100 #
#116
0!
#117
1!
b10110000 #
#118
0!
#119
1!
b10110100 #
#120
0!
#121
1!
b10111000 #
#122
0!
#123
1!
b10111100 #
#124
0!
#125
1!
b11000000 #
#126
0!
#127
1!
b11000100 #
#128
0!
#129
1!
b11001000 #
#130
0!
#131
1!
b11001100 #
#132
0!
#133
1!
b11010000 #
#134
0!
#135
1!
b11010100 #
#136
0!
#137
1!
b11011000 #
#138
0!
#139
1!
b11011100 #
#140
0!
#141
1!
b11100000 #
#142
0!
#143
1!
b11100100 #
#144
0!
#145
1!
b11101000 #
#146
0!
#147
1!
b11101100 #
#148
0!
#149
1!
b11110000 #
#150
0!
#151
1!
b11110100 #
#152
0!
#153
1!
b11111000 #
#154
0!
#155
1!
b11111100 #
#156
0!
#157
1!
b100000000 #
#158
0!
#159
1!
b100000100 #
#160
0!
#161
1!
b100001000 #
#162
0!
#163
1!
b100001100 #
#164
0!
#165
1!
b100010000 #
#166
0!
#167
1!
b100010100 #
#168
0!
#169
1!
b100011000 #
#170
0!
#171
1!
b100011100 #
#172
0!
#173
1!
b100100000 #
#174
0!
#175
1!
b100100100 #
#176
0!
#177
1!
b100101000 #
#178
0!
#179
1!
b100101100 #
#180
0!
#181
1!
b100110000 #
#182
0!
#183
1!
b100110100 #
#184
0!
#185
1!
b100111000 #
#186
0!
#187
1!
b100111100 #
#188
0!
#189
1!
b101000000 #
#190
0!
#191
1!
b101000100 #
#192
0!
#193
1!
b101001000 #
#194
0!
#195
1!
b101001100 #
#196
0!
#197
1!
b101010000 #
#198
0!
#199
1!
b101010100 #
#200
0!
#201
1!
b101011000 #
#202
0!
#203
1!
b101011100 #
#204
0!
#205
1!
b101100000 #
#206
0!
#207
1!
b101100100 #
#208
0!
#209
1!
b101101000 #
#210
0!
#211
1!
b101101100 #
#212
0!
#213
1!
b101110000 #
#214
0!
#215
1!
b101110100 #
#216
0!
#217
1!
b101111000 #
#218
0!
#219
1!
b101111100 #
#220
0!
#221
1!
b110000000 #
#222
0!
#223
1!
b110000100 #
#224
0!
#225
1!
b110001000 #
#226
0!
#227
1!
b110001100 #
#228
0!
#229
1!
b110010000 #
#230
0!
#231
1!
b110010100 #
#232
0!
#233
1!
b110011000 #
#234
0!
#235
1!
b110011100 #
#236
0!
#237
1!
b110100000 #
#238
0!
#239
1!
b110100100 #
#240
0!
#241
1!
b110101000 #
#242
0!
#243
1!
b110101100 #
#244
0!
#245
1!
b110110000 #
#246
0!
#247
1!
b110110100 #
