matieres-1A/informatique-1A/inf107/td-logisim/mux/vcd/mux.vcd
$date today $end
$timescale 1 ns $end
$scope module circ $end
$var integer 1 ! DIN0 $end
$var integer 1 # DIN1 $end
$var integer 1 % Sel $end
$var integer 1 ' DOUT $end
$upscope $end
$scope module spec $end
$var integer 1 " DIN0 $end
$var integer 1 $ DIN1 $end
$var integer 1 & Sel $end
$var integer 1 ( DOUT $end
$upscope $end
$enddefinitions $end
#0
$dumpvars
0!
0"
0#
0$
0%
0&
0'
0(
$end
#1
1!
1'
1"
1(
#2
0!
1#
0'
0"
1$
0(
#3
1!
1'
1"
1(
#4
0!
0#
1%
0'
0"
0$
1&
0(
#5
1!
1"
#6
0!
1#
1'
0"
1$
1(
#7
1!
1"
#8
0!
0#
0%
0'
0"
0$
0&
0(
