matieres-1A/informatique-1A/inf107/td-logisim/addsub/vcd/addsub.vcd
$date today $end
$timescale 1 ns $end
$scope module circ $end
$var integer 8 ! A $end
$var integer 8 # B $end
$var integer 1 % sub $end
$var integer 8 ' Y $end
$upscope $end
$scope module spec $end
$var integer 8 " A $end
$var integer 8 $ B $end
$var integer 1 & sub $end
$var integer 8 ( Y $end
$upscope $end
$enddefinitions $end
#0
$dumpvars
b1 !
b1 "
b0 #
b0 $
0%
0&
b1 '
b1 (
$end
#1
b10 !
b1 #
b11 '
b10 "
b1 $
b11 (
#2
b10000000 !
b111111 #
b10111111 '
b10000000 "
b111111 $
b10111111 (
#3
b10110010 !
b11111111 #
b10110001 '
b10110010 "
b11111111 $
b10110001 (
#4
b11111111 !
b10000000 #
b1111111 '
b11111111 "
b10000000 $
b1111111 (
#5
b10000 !
b10000 #
b100000 '
b10000 "
b10000 $
b100000 (
#6
b100000 !
b110000 #
b1010000 '
b100000 "
b110000 $
b1010000 (
#7
b1000000 !
b10000000 #
b11000000 '
b1000000 "
b10000000 $
b11000000 (
#8
b1 !
b0 #
1%
b1 '
b1 "
b0 $
1&
b1 (
#9
b10 !
b1 #
b10 "
b1 $
#10
b10000000 !
b111111 #
b1000001 '
b10000000 "
b111111 $
b1000001 (
#11
b10110010 !
b11111111 #
b10110011 '
b10110010 "
b11111111 $
b10110011 (
#12
b11111111 !
b10000000 #
b1111111 '
b11111111 "
b10000000 $
b1111111 (
#13
b10000 !
b10000 #
b0 '
b10000 "
b10000 $
b0 (
#14
b100000 !
b110000 #
b11110000 '
b100000 "
b110000 $
b11110000 (
#15
b1000000 !
b10000000 #
b11000000 '
b1000000 "
b10000000 $
b11000000 (
#16
b1 !
b0 #
0%
b1 '
b1 "
b0 $
0&
b1 (
