matieres-1A/informatique-1A/inf107/td-logisim/dff/vcd/dff.vcd
$date today $end
$timescale 1 ns $end
$scope module circ $end
$var integer 1 ! clk $end
$var integer 1 # reset $end
$var integer 1 % en $end
$var integer 1 ' D $end
$var integer 1 ) Q $end
$upscope $end
$scope module spec $end
$var integer 1 " clk $end
$var integer 1 $ reset $end
$var integer 1 & en $end
$var integer 1 ( D $end
$var integer 1 * Q $end
$upscope $end
$enddefinitions $end
#0
$dumpvars
0!
0"
1#
1$
0%
0&
0'
0(
0)
0*
$end
#1
1!
1"
#2
0!
0"
#3
1!
1"
#4
0!
0#
1%
0"
0$
1&
#5
1!
1"
#6
0!
1'
0"
1(
#7
1!
1)
1"
1*
#8
0!
0'
0"
0(
#9
1!
0)
1"
0*
#10
0!
0%
0"
0&
#11
1!
1"
#12
0!
1'
0"
1(
#13
1!
1"
#14
0!
0"
#15
1!
1"
#16
0!
1%
0"
1&
#17
1!
1)
1"
1*
#18
0!
0%
0"
0&
#19
1!
1"
#20
0!
0"
#21
1!
1"
#22
0!
0'
0"
0(
#23
1!
1"
#24
0!
1%
0"
1&
#25
1!
0)
1"
0*
#26
0!
0"
#27
1!
1"
#28
0!
1'
0"
1(
#29
1!
1)
1"
1*
#30
0!
0%
0"
0&
#31
1!
1"
#32
0!
1#
0'
0"
1$
0(
