matieres-1A/informatique-1A/inf107/td-logisim/sub/vcd/sub.vcd
$date today $end
$timescale 1 ns $end
$scope module circ $end
$var integer 1 ! a $end
$var integer 1 # b $end
$var integer 1 % c $end
$var integer 1 ' cout $end
$var integer 1 ) d $end
$upscope $end
$scope module spec $end
$var integer 1 " a $end
$var integer 1 $ b $end
$var integer 1 & c $end
$var integer 1 ( cout $end
$var integer 1 * d $end
$upscope $end
$enddefinitions $end
#0
$dumpvars
0!
0"
0#
0$
0%
0&
0'
0(
0)
0*
$end
#1
1!
1)
1"
1*
#2
0!
1#
1'
0"
1$
1(
#3
1!
0'
0)
1"
0(
0*
#4
0!
0#
1%
1'
1)
0"
0$
1&
1(
1*
#5
1!
0'
0)
1"
0(
0*
#6
0!
1#
1'
0"
1$
1(
#7
1!
1"
1*
#8
0!
0#
0%
0'
0"
0$
0&
0(
0*
